\beamer@endinputifotherversion {3.36pt}
\headcommand {\slideentry {0}{0}{1}{1/1}{}{0}}
\headcommand {\beamer@framepages {1}{1}}
\headcommand {\beamer@subsectionentry {0}{0}{1}{2}{Quirky Lamp}}\headcommand {\beamer@subsectionpages {1}{1}}
\headcommand {\slideentry {0}{1}{1}{2/2}{Quirky Lamp}{0}}
\headcommand {\beamer@framepages {2}{2}}
\headcommand {\slideentry {0}{1}{2}{3/3}{Quirky Lamp}{0}}
\headcommand {\beamer@framepages {3}{3}}
\headcommand {\slideentry {0}{1}{3}{4/4}{Quirky Lamp}{0}}
\headcommand {\beamer@framepages {4}{4}}
\headcommand {\slideentry {0}{1}{4}{5/5}{Quirky Lamp}{0}}
\headcommand {\beamer@framepages {5}{5}}
\headcommand {\sectionentry {1}{Part I - Sensor Data Collection}{6}{Part I - Sensor Data Collection}{0}}
\headcommand {\beamer@sectionpages {1}{5}}
\headcommand {\beamer@subsectionpages {2}{5}}
\headcommand {\slideentry {1}{0}{1}{6/6}{}{0}}
\headcommand {\beamer@framepages {6}{6}}
\headcommand {\beamer@subsectionentry {0}{1}{1}{7}{Sensor Data and MQTT}}\headcommand {\beamer@subsectionpages {6}{6}}
\headcommand {\slideentry {1}{1}{1}{7/7}{Sensor Data and MQTT}{0}}
\headcommand {\beamer@framepages {7}{7}}
\headcommand {\slideentry {1}{1}{2}{8/8}{Sensor Data and MQTT}{0}}
\headcommand {\beamer@framepages {8}{8}}
\headcommand {\sectionentry {2}{Part II - Sound-Lightning Service}{9}{Part II - Sound-Lightning Service}{0}}
\headcommand {\beamer@sectionpages {6}{8}}
\headcommand {\beamer@subsectionpages {7}{8}}
\headcommand {\slideentry {2}{0}{1}{9/9}{}{0}}
\headcommand {\beamer@framepages {9}{9}}
\headcommand {\slideentry {2}{0}{2}{10/10}{}{0}}
\headcommand {\beamer@framepages {10}{10}}
\headcommand {\slideentry {2}{0}{3}{11/11}{}{0}}
\headcommand {\beamer@framepages {11}{11}}
\headcommand {\sectionentry {3}{Video Demo}{12}{Video Demo}{0}}
\headcommand {\beamer@sectionpages {9}{11}}
\headcommand {\beamer@subsectionpages {9}{11}}
\headcommand {\slideentry {3}{0}{1}{12/12}{}{0}}
\headcommand {\beamer@framepages {12}{12}}
\headcommand {\sectionentry {4}{Interesting Obstacles}{13}{Interesting Obstacles}{0}}
\headcommand {\beamer@sectionpages {12}{12}}
\headcommand {\beamer@subsectionpages {12}{12}}
\headcommand {\slideentry {4}{0}{1}{13/13}{}{0}}
\headcommand {\beamer@framepages {13}{13}}
\headcommand {\beamer@subsectionentry {0}{4}{1}{14}{ADC Accuracy}}\headcommand {\beamer@subsectionpages {13}{13}}
\headcommand {\slideentry {4}{1}{1}{14/14}{ADC Accuracy}{0}}
\headcommand {\beamer@framepages {14}{14}}
\headcommand {\beamer@subsectionentry {0}{4}{2}{15}{Polling vs Interrupts}}\headcommand {\beamer@subsectionpages {14}{14}}
\headcommand {\slideentry {4}{2}{1}{15/15}{Polling vs Interrupts}{0}}
\headcommand {\beamer@framepages {15}{15}}
\headcommand {\slideentry {4}{2}{2}{16/16}{Polling vs Interrupts}{0}}
\headcommand {\beamer@framepages {16}{16}}
\headcommand {\beamer@partpages {1}{16}}
\headcommand {\beamer@subsectionpages {15}{16}}
\headcommand {\beamer@sectionpages {13}{16}}
\headcommand {\beamer@documentpages {16}}
\headcommand {\def \inserttotalframenumber {16}}
